<?xml version="1.0" encoding="utf-8"?>
<!-- Generator: Adobe Illustrator 22.1.0, SVG Export Plug-In . SVG Version: 6.00 Build 0)  -->
<svg version="1.1" id="Calque_1" xmlns="http://www.w3.org/2000/svg" xmlns:xlink="http://www.w3.org/1999/xlink" x="0px" y="0px"
	 viewBox="0 0 512 512" style="enable-background:new 0 0 512 512;" xml:space="preserve">
<title>facebook</title>
<path d="M304,96h80V0h-80c-61.8,0-112,50.2-112,112v48h-64v96h64v256h96V256h80l16-96h-96v-48C288,103.3,295.3,96,304,96z"/>
</svg>
